<svg width="18" height="18" viewBox="0 0 18 18" fill="none" xmlns="http://www.w3.org/2000/svg">
<path d="M5.625 14C4.6625 14 3.88375 14.7875 3.88375 15.75C3.88375 16.7125 4.6625 17.5 5.625 17.5C6.5875 17.5 7.375 16.7125 7.375 15.75C7.375 14.7875 6.5875 14 5.625 14ZM0.375 0V1.75H2.125L5.275 8.39125L4.09375 10.535C3.95375 10.78 3.875 11.0688 3.875 11.375C3.875 12.3375 4.6625 13.125 5.625 13.125H16.125V11.375H5.9925C5.87 11.375 5.77375 11.2788 5.77375 11.1562L5.8 11.0513L6.5875 9.625H13.1062C13.7625 9.625 14.34 9.26625 14.6375 8.72375L17.77 3.045C17.84 2.9225 17.875 2.77375 17.875 2.625C17.875 2.14375 17.4813 1.75 17 1.75H4.05875L3.23625 0H0.375ZM14.375 14C13.4125 14 12.6337 14.7875 12.6337 15.75C12.6337 16.7125 13.4125 17.5 14.375 17.5C15.3375 17.5 16.125 16.7125 16.125 15.75C16.125 14.7875 15.3375 14 14.375 14Z" fill="black"/>
</svg>
